﻿Log file open, 02/07/20 10:29:20
LogWindows: Failed to load 'aqProf.dll' (GetLastError=126)
LogWindows: File 'aqProf.dll' does not exist
LogWindows: Failed to load 'VtuneApi.dll' (GetLastError=126)
LogWindows: File 'VtuneApi.dll' does not exist
LogWindows: Failed to load 'VtuneApi32e.dll' (GetLastError=126)
LogWindows: File 'VtuneApi32e.dll' does not exist
LogConsoleResponse: Display: Failed to find resolution value strings in scalability ini. Falling back to default.
LogInit: Display: Running engine for game: JourneymanMechanics
LogPakFile: Registered encryption key '00000000000000000000000000000000': 0 pak files mounted, 0 remain pending
LogPlatformFile: Not using cached read wrapper
LogTaskGraph: Started task graph with 5 named threads and 20 total threads with 3 sets of task threads.
LogStats: Stats thread started at 0.809012
LogD3D11RHI: Loaded GFSDK_Aftermath_Lib.x64.dll
LogICUInternationalization: ICU TimeZone Detection - Raw Offset: +0:00, Platform Override: ''
LogPluginManager: Mounting plugin Paper2D
LogPluginManager: Mounting plugin AISupport
LogPluginManager: Mounting plugin LightPropagationVolume
LogPluginManager: Mounting plugin ActorLayerUtilities
LogPluginManager: Mounting plugin CLionSourceCodeAccess
LogPluginManager: Mounting plugin CodeLiteSourceCodeAccess
LogPluginManager: Mounting plugin GitSourceControl
LogPluginManager: Mounting plugin KDevelopSourceCodeAccess
LogPluginManager: Mounting plugin NullSourceCodeAccess
LogPluginManager: Mounting plugin PerforceSourceControl
LogPluginManager: Mounting plugin SubversionSourceControl
LogPluginManager: Mounting plugin UObjectPlugin
LogPluginManager: Mounting plugin VisualStudioCodeSourceCodeAccess
LogPluginManager: Mounting plugin VisualStudioSourceCodeAccess
LogPluginManager: Mounting plugin XCodeSourceCodeAccess
LogPluginManager: Mounting plugin AssetManagerEditor
LogPluginManager: Mounting plugin CryptoKeys
LogPluginManager: Mounting plugin DataValidation
LogPluginManager: Mounting plugin FacialAnimation
LogPluginManager: Mounting plugin GameplayTagsEditor
LogPluginManager: Mounting plugin MacGraphicsSwitching
LogPluginManager: Mounting plugin MeshEditor
LogPluginManager: Mounting plugin MobileLauncherProfileWizard
LogPluginManager: Mounting plugin PluginBrowser
LogPluginManager: Mounting plugin SpeedTreeImporter
LogPluginManager: Mounting plugin DatasmithContent
LogPluginManager: Mounting plugin VariantManagerContent
LogPluginManager: Mounting plugin AlembicImporter
LogPluginManager: Mounting plugin AppleImageUtils
LogPluginManager: Mounting plugin AppleVision
LogPluginManager: Mounting plugin BackChannel
LogPluginManager: Mounting plugin CharacterAI
LogPluginManager: Mounting plugin GeometryCache
LogPluginManager: Mounting plugin HTML5Networking
LogPluginManager: Mounting plugin ProxyLODPlugin
LogPluginManager: Mounting plugin MagicLeap
LogPluginManager: Mounting plugin MagicLeapMedia
LogPluginManager: Mounting plugin AndroidMedia
LogPluginManager: Mounting plugin AvfMedia
LogPluginManager: Mounting plugin ImgMedia
LogPluginManager: Mounting plugin LinearTimecode
LogPluginManager: Mounting plugin MediaCompositing
LogPluginManager: Mounting plugin MediaPlayerEditor
LogPluginManager: Mounting plugin WebMMedia
LogPluginManager: Mounting plugin WmfMedia
LogPluginManager: Mounting plugin TcpMessaging
LogPluginManager: Mounting plugin UdpMessaging
LogPluginManager: Mounting plugin ActorSequence
LogPluginManager: Mounting plugin LevelSequenceEditor
LogPluginManager: Mounting plugin MatineeToLevelSequence
LogPluginManager: Mounting plugin NetcodeUnitTest
LogPluginManager: Mounting plugin NUTUnrealEngine4
LogPluginManager: Mounting plugin OnlineSubsystemGooglePlay
LogPluginManager: Mounting plugin OnlineSubsystemIOS
LogPluginManager: Mounting plugin OnlineSubsystem
LogPluginManager: Mounting plugin OnlineSubsystemNull
LogPluginManager: Mounting plugin OnlineSubsystemUtils
LogPluginManager: Mounting plugin LauncherChunkInstaller
LogPluginManager: Mounting plugin AndroidDeviceProfileSelector
LogPluginManager: Mounting plugin AndroidMoviePlayer
LogPluginManager: Mounting plugin AndroidPermission
LogPluginManager: Mounting plugin AppleMoviePlayer
LogPluginManager: Mounting plugin ArchVisCharacter
LogPluginManager: Mounting plugin AudioCapture
LogPluginManager: Mounting plugin CableComponent
LogPluginManager: Mounting plugin CustomMeshComponent
LogPluginManager: Mounting plugin EditableMesh
LogPluginManager: Mounting plugin ExampleDeviceProfileSelector
LogPluginManager: Mounting plugin Firebase
LogPluginManager: Mounting plugin GoogleCloudMessaging
LogPluginManager: Mounting plugin IOSDeviceProfileSelector
LogPluginManager: Mounting plugin LinuxDeviceProfileSelector
LogPluginManager: Mounting plugin LocationServicesBPLibrary
LogPluginManager: Mounting plugin MobilePatchingUtils
LogPluginManager: Mounting plugin OculusVR
LogPluginManager: Mounting plugin PhysXVehicles
LogPluginManager: Mounting plugin ProceduralMeshComponent
LogPluginManager: Mounting plugin RuntimePhysXCooking
LogPluginManager: Mounting plugin SteamVR
LogPluginManager: Mounting plugin WebMMoviePlayer
LogPluginManager: Mounting plugin WindowsMoviePlayer
LogPluginManager: Mounting plugin UnrealEnginePython
LogStreaming: Display: Took  0.348s to configure plugins.
LogInit: Using libcurl 7.55.1-DEV
LogInit:  - built for x86_64-pc-win32
LogInit:  - supports SSL with OpenSSL/1.0.2h
LogInit:  - supports HTTP deflate (compression) using libz 1.2.8
LogInit:  - other features:
LogInit:      CURL_VERSION_SSL
LogInit:      CURL_VERSION_LIBZ
LogInit:      CURL_VERSION_IPV6
LogInit:      CURL_VERSION_ASYNCHDNS
LogInit:      CURL_VERSION_LARGEFILE
LogInit:      CURL_VERSION_IDN
LogInit:  CurlRequestOptions (configurable via config and command line):
LogInit:  - bVerifyPeer = true  - Libcurl will verify peer certificate
LogInit:  - bUseHttpProxy = false  - Libcurl will NOT use HTTP proxy
LogInit:  - bDontReuseConnections = false  - Libcurl will reuse connections
LogInit:  - MaxHostConnections = 16  - Libcurl will limit the number of connections to a host
LogInit:  - LocalHostAddr = Default
LogInit:  - BufferSize = 65536
LogInit: WinSock: version 1.1 (2.2), MaxSocks=32767, MaxUdp=65467
LogHMD: Failed initializing OVRPlugin 1.28.0
LogInit: Build: ++UE4+Release-4.21-CL-4753647
LogInit: Engine Version: 4.21.2-4753647+++UE4+Release-4.21
LogInit: Compatible Engine Version: 4.21.0-4541578+++UE4+Release-4.21
LogInit: Net CL: 4541578
LogInit: OS: Windows 10 (), CPU: Intel(R) Core(TM) i5-9400 CPU @ 2.90GHz, GPU: NVIDIA GeForce GTX 1650
LogInit: Compiled (64-bit): Jan 19 2019 02:07:31
LogInit: Compiled with Visual C++: 19.13.26129.00
LogInit: Build Configuration: Development
LogInit: Branch Name: ++UE4+Release-4.21
LogInit: Command Line: 
LogInit: Base Directory: D:/Program Files/Epic Games/UE_4.21/Engine/Binaries/Win64/
LogInit: Installed Engine Build: 1
LogDevObjectVersion: Number of dev versions registered: 22
LogDevObjectVersion:   Dev-Blueprints (B0D832E4-1F89-4F0D-ACCF-7EB736FD4AA2): 10
LogDevObjectVersion:   Dev-Build (E1C64328-A22C-4D53-A36C-8E866417BD8C): 0
LogDevObjectVersion:   Dev-Core (375EC13C-06E4-48FB-B500-84F0262A717E): 2
LogDevObjectVersion:   Dev-Editor (E4B068ED-F494-42E9-A231-DA0B2E46BB41): 26
LogDevObjectVersion:   Dev-Framework (CFFC743F-43B0-4480-9391-14DF171D2073): 34
LogDevObjectVersion:   Dev-Mobile (B02B49B5-BB20-44E9-A304-32B752E40360): 2
LogDevObjectVersion:   Dev-Networking (A4E4105C-59A1-49B5-A7C5-40C4547EDFEE): 0
LogDevObjectVersion:   Dev-Online (39C831C9-5AE6-47DC-9A44-9C173E1C8E7C): 0
LogDevObjectVersion:   Dev-Physics (78F01B33-EBEA-4F98-B9B4-84EACCB95AA2): 0
LogDevObjectVersion:   Dev-Platform (6631380F-2D4D-43E0-8009-CF276956A95A): 0
LogDevObjectVersion:   Dev-Rendering (12F88B9F-8875-4AFC-A67C-D90C383ABD29): 27
LogDevObjectVersion:   Dev-Sequencer (7B5AE74C-D270-4C10-A958-57980B212A5A): 9
LogDevObjectVersion:   Dev-VR (D7296918-1DD6-4BDD-9DE2-64A83CC13884): 2
LogDevObjectVersion:   Dev-LoadTimes (C2A15278-BFE7-4AFE-6C17-90FF531DF755): 1
LogDevObjectVersion:   Private-Geometry (6EACA3D4-40EC-4CC1-B786-8BED09428FC5): 3
LogDevObjectVersion:   Dev-AnimPhys (29E575DD-E0A3-4627-9D10-D276232CDCEA): 17
LogDevObjectVersion:   Dev-Anim (AF43A65D-7FD3-4947-9873-3E8ED9C1BB05): 2
LogDevObjectVersion:   Dev-ReflectionCapture (6B266CEC-1EC7-4B8F-A30B-E4D90942FC07): 1
LogDevObjectVersion:   Dev-Automation (0DF73D61-A23F-47EA-B727-89E90C41499A): 1
LogDevObjectVersion:   FortniteMain (601D1886-AC64-4F84-AA16-D3DE0DEAC7D6): 17
LogDevObjectVersion:   Dev-Enterprise (9DFFBCD6-494F-0158-E221-12823C92A888): 4
LogDevObjectVersion:   Dev-Niagara (F2AED0AC-9AFE-416F-8664-AA7FFA26D6FC): 1
LogStreaming: Display: Took  0.000s to delete old logs.
LogInit: Presizing for max 8388607 objects, including 0 objects not considered by GC, pre-allocating 0 bytes for permanent pool.
LogInit: Object subsystem initialized
LogConfig: Setting CVar [[con.DebugEarlyDefault:1]]
LogConfig: Setting CVar [[r.setres:1280x720]]
[2020.02.07-10.29.21:805][  0]LogConfig: Setting CVar [[r.VSync:0]]
[2020.02.07-10.29.21:805][  0]LogConfig: Setting CVar [[r.RHICmdBypass:0]]
[2020.02.07-10.29.21:805][  0]LogConfig: Applying CVar settings from Section [/Script/Engine.RendererSettings] File [D:/Users/marti/Documents/Unreal Projects/JourneymanMechanics/Saved/Config/Windows/Engine.ini]
[2020.02.07-10.29.21:805][  0]LogConfig: Setting CVar [[r.GPUCrashDebugging:0]]
[2020.02.07-10.29.21:805][  0]LogConfig: Applying CVar settings from Section [/Script/Engine.RendererOverrideSettings] File [D:/Users/marti/Documents/Unreal Projects/JourneymanMechanics/Saved/Config/Windows/Engine.ini]
[2020.02.07-10.29.21:805][  0]LogConfig: Applying CVar settings from Section [/Script/Engine.StreamingSettings] File [D:/Users/marti/Documents/Unreal Projects/JourneymanMechanics/Saved/Config/Windows/Engine.ini]
[2020.02.07-10.29.21:805][  0]LogConfig: Setting CVar [[s.MinBulkDataSizeForAsyncLoading:131072]]
[2020.02.07-10.29.21:805][  0]LogConfig: Setting CVar [[s.AsyncLoadingThreadEnabled:0]]
[2020.02.07-10.29.21:805][  0]LogConfig: Setting CVar [[s.EventDrivenLoaderEnabled:1]]
[2020.02.07-10.29.21:805][  0]LogConfig: Setting CVar [[s.WarnIfTimeLimitExceeded:0]]
[2020.02.07-10.29.21:805][  0]LogConfig: Setting CVar [[s.TimeLimitExceededMultiplier:1.5]]
[2020.02.07-10.29.21:805][  0]LogConfig: Setting CVar [[s.TimeLimitExceededMinTime:0.005]]
[2020.02.07-10.29.21:805][  0]LogConfig: Setting CVar [[s.UseBackgroundLevelStreaming:1]]
[2020.02.07-10.29.21:805][  0]LogConfig: Setting CVar [[s.PriorityAsyncLoadingExtraTime:15.0]]
[2020.02.07-10.29.21:805][  0]LogConfig: Setting CVar [[s.LevelStreamingActorsUpdateTimeLimit:5.0]]
[2020.02.07-10.29.21:805][  0]LogConfig: Setting CVar [[s.PriorityLevelStreamingActorsUpdateExtraTime:5.0]]
[2020.02.07-10.29.21:805][  0]LogConfig: Setting CVar [[s.LevelStreamingComponentsRegistrationGranularity:10]]
[2020.02.07-10.29.21:806][  0]LogConfig: Setting CVar [[s.UnregisterComponentsTimeLimit:1.0]]
[2020.02.07-10.29.21:806][  0]LogConfig: Setting CVar [[s.LevelStreamingComponentsUnregistrationGranularity:5]]
[2020.02.07-10.29.21:806][  0]LogConfig: Applying CVar settings from Section [/Script/Engine.GarbageCollectionSettings] File [D:/Users/marti/Documents/Unreal Projects/JourneymanMechanics/Saved/Config/Windows/Engine.ini]
[2020.02.07-10.29.21:806][  0]LogConfig: Setting CVar [[gc.MaxObjectsNotConsideredByGC:1]]
[2020.02.07-10.29.21:806][  0]LogConfig: Setting CVar [[gc.SizeOfPermanentObjectPool:0]]
[2020.02.07-10.29.21:806][  0]LogConfig: Setting CVar [[gc.FlushStreamingOnGC:0]]
[2020.02.07-10.29.21:806][  0]LogConfig: Setting CVar [[gc.NumRetriesBeforeForcingGC:10]]
[2020.02.07-10.29.21:806][  0]LogConfig: Setting CVar [[gc.AllowParallelGC:1]]
[2020.02.07-10.29.21:806][  0]LogConfig: Setting CVar [[gc.TimeBetweenPurgingPendingKillObjects:61.1]]
[2020.02.07-10.29.21:806][  0]LogConfig: Setting CVar [[gc.MaxObjectsInEditor:8388607]]
[2020.02.07-10.29.21:806][  0]LogConfig: Setting CVar [[gc.IncrementalBeginDestroyEnabled:1]]
[2020.02.07-10.29.21:806][  0]LogConfig: Setting CVar [[gc.CreateGCClusters:1]]
[2020.02.07-10.29.21:806][  0]LogConfig: Setting CVar [[gc.MergeGCClusters:0]]
[2020.02.07-10.29.21:806][  0]LogConfig: Setting CVar [[gc.MinGCClusterSize:5]]
[2020.02.07-10.29.21:806][  0]LogConfig: Setting CVar [[gc.ActorClusteringEnabled:0]]
[2020.02.07-10.29.21:806][  0]LogConfig: Setting CVar [[gc.BlueprintClusteringEnabled:0]]
[2020.02.07-10.29.21:806][  0]LogConfig: Setting CVar [[gc.UseDisregardForGCOnDedicatedServers:0]]
[2020.02.07-10.29.21:806][  0]LogConfig: Applying CVar settings from Section [/Script/Engine.NetworkSettings] File [D:/Users/marti/Documents/Unreal Projects/JourneymanMechanics/Saved/Config/Windows/Engine.ini]
[2020.02.07-10.29.21:806][  0]LogConfig: Applying CVar settings from Section [/Script/UnrealEd.CookerSettings] File [D:/Users/marti/Documents/Unreal Projects/JourneymanMechanics/Saved/Config/Windows/Engine.ini]
[2020.02.07-10.29.21:810][  0]LogConfig: Applying CVar settings from Section [ViewDistanceQuality@3] File [D:/Users/marti/Documents/Unreal Projects/JourneymanMechanics/Saved/Config/Windows/Scalability.ini]
[2020.02.07-10.29.21:810][  0]LogConfig: Setting CVar [[r.SkeletalMeshLODBias:0]]
[2020.02.07-10.29.21:810][  0]LogConfig: Setting CVar [[r.ViewDistanceScale:1.0]]
[2020.02.07-10.29.21:810][  0]LogConfig: Applying CVar settings from Section [AntiAliasingQuality@3] File [D:/Users/marti/Documents/Unreal Projects/JourneymanMechanics/Saved/Config/Windows/Scalability.ini]
[2020.02.07-10.29.21:810][  0]LogConfig: Setting CVar [[r.PostProcessAAQuality:4]]
[2020.02.07-10.29.21:810][  0]LogConfig: Applying CVar settings from Section [ShadowQuality@3] File [D:/Users/marti/Documents/Unreal Projects/JourneymanMechanics/Saved/Config/Windows/Scalability.ini]
[2020.02.07-10.29.21:810][  0]LogConfig: Setting CVar [[r.LightFunctionQuality:1]]
[2020.02.07-10.29.21:810][  0]LogConfig: Setting CVar [[r.ShadowQuality:5]]
[2020.02.07-10.29.21:810][  0]LogConfig: Setting CVar [[r.Shadow.CSM.MaxCascades:10]]
[2020.02.07-10.29.21:810][  0]LogConfig: Setting CVar [[r.Shadow.MaxResolution:2048]]
[2020.02.07-10.29.21:810][  0]LogConfig: Setting CVar [[r.Shadow.MaxCSMResolution:2048]]
[2020.02.07-10.29.21:810][  0]LogConfig: Setting CVar [[r.Shadow.RadiusThreshold:0.01]]
[2020.02.07-10.29.21:810][  0]LogConfig: Setting CVar [[r.Shadow.DistanceScale:1.0]]
[2020.02.07-10.29.21:810][  0]LogConfig: Setting CVar [[r.Shadow.CSM.TransitionScale:1.0]]
[2020.02.07-10.29.21:810][  0]LogConfig: Setting CVar [[r.Shadow.PreShadowResolutionFactor:1.0]]
[2020.02.07-10.29.21:810][  0]LogConfig: Setting CVar [[r.DistanceFieldShadowing:1]]
[2020.02.07-10.29.21:810][  0]LogConfig: Setting CVar [[r.DistanceFieldAO:1]]
[2020.02.07-10.29.21:810][  0]LogConfig: Setting CVar [[r.AOQuality:2]]
[2020.02.07-10.29.21:810][  0]LogConfig: Setting CVar [[r.VolumetricFog:1]]
[2020.02.07-10.29.21:810][  0]LogConfig: Setting CVar [[r.VolumetricFog.GridPixelSize:8]]
[2020.02.07-10.29.21:810][  0]LogConfig: Setting CVar [[r.VolumetricFog.GridSizeZ:128]]
[2020.02.07-10.29.21:810][  0]LogConfig: Setting CVar [[r.VolumetricFog.HistoryMissSupersampleCount:4]]
[2020.02.07-10.29.21:810][  0]LogConfig: Setting CVar [[r.LightMaxDrawDistanceScale:1]]
[2020.02.07-10.29.21:810][  0]LogConfig: Setting CVar [[r.CapsuleShadows:1]]
[2020.02.07-10.29.21:810][  0]LogConfig: Applying CVar settings from Section [PostProcessQuality@3] File [D:/Users/marti/Documents/Unreal Projects/JourneymanMechanics/Saved/Config/Windows/Scalability.ini]
[2020.02.07-10.29.21:810][  0]LogConfig: Setting CVar [[r.MotionBlurQuality:4]]
[2020.02.07-10.29.21:810][  0]LogConfig: Setting CVar [[r.AmbientOcclusionMipLevelFactor:0.4]]
[2020.02.07-10.29.21:810][  0]LogConfig: Setting CVar [[r.AmbientOcclusionMaxQuality:100]]
[2020.02.07-10.29.21:810][  0]LogConfig: Setting CVar [[r.AmbientOcclusionLevels:-1]]
[2020.02.07-10.29.21:810][  0]LogConfig: Setting CVar [[r.AmbientOcclusionRadiusScale:1.0]]
[2020.02.07-10.29.21:810][  0]LogConfig: Setting CVar [[r.DepthOfFieldQuality:2]]
[2020.02.07-10.29.21:810][  0]LogConfig: Setting CVar [[r.RenderTargetPoolMin:400]]
[2020.02.07-10.29.21:811][  0]LogConfig: Setting CVar [[r.LensFlareQuality:2]]
[2020.02.07-10.29.21:811][  0]LogConfig: Setting CVar [[r.SceneColorFringeQuality:1]]
[2020.02.07-10.29.21:811][  0]LogConfig: Setting CVar [[r.EyeAdaptationQuality:2]]
[2020.02.07-10.29.21:811][  0]LogConfig: Setting CVar [[r.BloomQuality:5]]
[2020.02.07-10.29.21:811][  0]LogConfig: Setting CVar [[r.FastBlurThreshold:100]]
[2020.02.07-10.29.21:811][  0]LogConfig: Setting CVar [[r.Upscale.Quality:3]]
[2020.02.07-10.29.21:811][  0]LogConfig: Setting CVar [[r.Tonemapper.GrainQuantization:1]]
[2020.02.07-10.29.21:811][  0]LogConfig: Setting CVar [[r.LightShaftQuality:1]]
[2020.02.07-10.29.21:811][  0]LogConfig: Setting CVar [[r.Filter.SizeScale:1]]
[2020.02.07-10.29.21:811][  0]LogConfig: Setting CVar [[r.Tonemapper.Quality:5]]
[2020.02.07-10.29.21:811][  0]LogConfig: Setting CVar [[r.DOF.Gather.AccumulatorQuality:1        ; higher gathering accumulator quality]]
[2020.02.07-10.29.21:811][  0]LogConfig: Setting CVar [[r.DOF.Gather.PostfilterMethod:1          ; Median3x3 postfilering method]]
[2020.02.07-10.29.21:811][  0]LogConfig: Setting CVar [[r.DOF.Gather.EnableBokehSettings:0       ; no bokeh simulation when gathering]]
[2020.02.07-10.29.21:811][  0]LogConfig: Setting CVar [[r.DOF.Gather.RingCount:4                 ; medium number of samples when gathering]]
[2020.02.07-10.29.21:811][  0]LogConfig: Setting CVar [[r.DOF.Scatter.ForegroundCompositing:1    ; additive foreground scattering]]
[2020.02.07-10.29.21:811][  0]LogConfig: Setting CVar [[r.DOF.Scatter.BackgroundCompositing:2    ; additive background scattering]]
[2020.02.07-10.29.21:811][  0]LogConfig: Setting CVar [[r.DOF.Scatter.EnableBokehSettings:1      ; bokeh simulation when scattering]]
[2020.02.07-10.29.21:811][  0]LogConfig: Setting CVar [[r.DOF.Scatter.MaxSpriteRatio:0.1         ; only a maximum of 10% of scattered bokeh]]
[2020.02.07-10.29.21:811][  0]LogConfig: Setting CVar [[r.DOF.Recombine.Quality:1                ; cheap slight out of focus]]
[2020.02.07-10.29.21:811][  0]LogConfig: Setting CVar [[r.DOF.Recombine.EnableBokehSettings:0    ; no bokeh simulation on slight out of focus]]
[2020.02.07-10.29.21:811][  0]LogConfig: Setting CVar [[r.DOF.TemporalAAQuality:1                ; more stable temporal accumulation]]
[2020.02.07-10.29.21:811][  0]LogConfig: Setting CVar [[r.DOF.Kernel.MaxForegroundRadius:0.025]]
[2020.02.07-10.29.21:811][  0]LogConfig: Setting CVar [[r.DOF.Kernel.MaxBackgroundRadius:0.025]]
[2020.02.07-10.29.21:811][  0]LogConfig: Applying CVar settings from Section [TextureQuality@3] File [D:/Users/marti/Documents/Unreal Projects/JourneymanMechanics/Saved/Config/Windows/Scalability.ini]
[2020.02.07-10.29.21:811][  0]LogConfig: Setting CVar [[r.Streaming.MipBias:0]]
[2020.02.07-10.29.21:811][  0]LogConfig: Setting CVar [[r.Streaming.AmortizeCPUToGPUCopy:0]]
[2020.02.07-10.29.21:811][  0]LogConfig: Setting CVar [[r.Streaming.MaxNumTexturesToStreamPerFrame:0]]
[2020.02.07-10.29.21:811][  0]LogConfig: Setting CVar [[r.Streaming.Boost:1]]
[2020.02.07-10.29.21:811][  0]LogConfig: Setting CVar [[r.MaxAnisotropy:8]]
[2020.02.07-10.29.21:811][  0]LogConfig: Setting CVar [[r.Streaming.LimitPoolSizeToVRAM:0]]
[2020.02.07-10.29.21:811][  0]LogConfig: Setting CVar [[r.Streaming.PoolSize:1000]]
[2020.02.07-10.29.21:811][  0]LogConfig: Setting CVar [[r.Streaming.MaxEffectiveScreenSize:0]]
[2020.02.07-10.29.21:811][  0]LogConfig: Applying CVar settings from Section [EffectsQuality@3] File [D:/Users/marti/Documents/Unreal Projects/JourneymanMechanics/Saved/Config/Windows/Scalability.ini]
[2020.02.07-10.29.21:811][  0]LogConfig: Setting CVar [[r.TranslucencyLightingVolumeDim:64]]
[2020.02.07-10.29.21:811][  0]LogConfig: Setting CVar [[r.RefractionQuality:2]]
[2020.02.07-10.29.21:811][  0]LogConfig: Setting CVar [[r.SSR.Quality:3]]
[2020.02.07-10.29.21:811][  0]LogConfig: Setting CVar [[r.SceneColorFormat:4]]
[2020.02.07-10.29.21:811][  0]LogConfig: Setting CVar [[r.DetailMode:2]]
[2020.02.07-10.29.21:811][  0]LogConfig: Setting CVar [[r.TranslucencyVolumeBlur:1]]
[2020.02.07-10.29.21:811][  0]LogConfig: Setting CVar [[r.MaterialQualityLevel:1 ; High quality]]
[2020.02.07-10.29.21:811][  0]LogConfig: Setting CVar [[r.SSS.Scale:1]]
[2020.02.07-10.29.21:811][  0]LogConfig: Setting CVar [[r.SSS.SampleSet:2]]
[2020.02.07-10.29.21:811][  0]LogConfig: Setting CVar [[r.SSS.Quality:1]]
[2020.02.07-10.29.21:811][  0]LogConfig: Setting CVar [[r.SSS.HalfRes:1]]
[2020.02.07-10.29.21:811][  0]LogConfig: Setting CVar [[r.EmitterSpawnRateScale:1.0]]
[2020.02.07-10.29.21:811][  0]LogConfig: Setting CVar [[r.ParticleLightQuality:2]]
[2020.02.07-10.29.21:811][  0]LogConfig: Applying CVar settings from Section [FoliageQuality@3] File [D:/Users/marti/Documents/Unreal Projects/JourneymanMechanics/Saved/Config/Windows/Scalability.ini]
[2020.02.07-10.29.21:811][  0]LogConfig: Setting CVar [[foliage.DensityScale:1.0]]
[2020.02.07-10.29.21:811][  0]LogConfig: Setting CVar [[grass.DensityScale:1.0]]
[2020.02.07-10.29.21:811][  0]LogInit: Selected Device Profile: [Windows]
[2020.02.07-10.29.21:811][  0]LogInit: Applying CVar settings loaded from the selected device profile: [Windows]
[2020.02.07-10.29.21:829][  0]LogHAL: Display: Platform has ~ 8 GB [8508895232 / 8589934592 / 8], which maps to Default [LargestMinGB=32, LargerMinGB=12, DefaultMinGB=8, SmallerMinGB=6, SmallestMinGB=0)
[2020.02.07-10.29.21:829][  0]LogConfig: Setting CVar [[r.Vulkan.UseRealUBs:1]]
[2020.02.07-10.29.21:829][  0]LogInit: Going up to parent DeviceProfile []
[2020.02.07-10.29.21:829][  0]LogConfig: Applying CVar settings from Section [ViewDistanceQuality@3] File [D:/Users/marti/Documents/Unreal Projects/JourneymanMechanics/Saved/Config/Windows/Scalability.ini]
[2020.02.07-10.29.21:829][  0]LogConfig: Setting CVar [[r.SkeletalMeshLODBias:0]]
[2020.02.07-10.29.21:829][  0]LogConfig: Setting CVar [[r.ViewDistanceScale:1.0]]
[2020.02.07-10.29.21:829][  0]LogConfig: Applying CVar settings from Section [AntiAliasingQuality@3] File [D:/Users/marti/Documents/Unreal Projects/JourneymanMechanics/Saved/Config/Windows/Scalability.ini]
[2020.02.07-10.29.21:829][  0]LogConfig: Setting CVar [[r.PostProcessAAQuality:4]]
[2020.02.07-10.29.21:829][  0]LogConfig: Applying CVar settings from Section [ShadowQuality@3] File [D:/Users/marti/Documents/Unreal Projects/JourneymanMechanics/Saved/Config/Windows/Scalability.ini]
[2020.02.07-10.29.21:829][  0]LogConfig: Setting CVar [[r.LightFunctionQuality:1]]
[2020.02.07-10.29.21:829][  0]LogConfig: Setting CVar [[r.ShadowQuality:5]]
[2020.02.07-10.29.21:829][  0]LogConfig: Setting CVar [[r.Shadow.CSM.MaxCascades:10]]
[2020.02.07-10.29.21:829][  0]LogConfig: Setting CVar [[r.Shadow.MaxResolution:2048]]
[2020.02.07-10.29.21:829][  0]LogConfig: Setting CVar [[r.Shadow.MaxCSMResolution:2048]]
[2020.02.07-10.29.21:829][  0]LogConfig: Setting CVar [[r.Shadow.RadiusThreshold:0.01]]
[2020.02.07-10.29.21:829][  0]LogConfig: Setting CVar [[r.Shadow.DistanceScale:1.0]]
[2020.02.07-10.29.21:829][  0]LogConfig: Setting CVar [[r.Shadow.CSM.TransitionScale:1.0]]
[2020.02.07-10.29.21:829][  0]LogConfig: Setting CVar [[r.Shadow.PreShadowResolutionFactor:1.0]]
[2020.02.07-10.29.21:829][  0]LogConfig: Setting CVar [[r.DistanceFieldShadowing:1]]
[2020.02.07-10.29.21:829][  0]LogConfig: Setting CVar [[r.DistanceFieldAO:1]]
[2020.02.07-10.29.21:829][  0]LogConfig: Setting CVar [[r.AOQuality:2]]
[2020.02.07-10.29.21:829][  0]LogConfig: Setting CVar [[r.VolumetricFog:1]]
[2020.02.07-10.29.21:829][  0]LogConfig: Setting CVar [[r.VolumetricFog.GridPixelSize:8]]
[2020.02.07-10.29.21:829][  0]LogConfig: Setting CVar [[r.VolumetricFog.GridSizeZ:128]]
[2020.02.07-10.29.21:829][  0]LogConfig: Setting CVar [[r.VolumetricFog.HistoryMissSupersampleCount:4]]
[2020.02.07-10.29.21:829][  0]LogConfig: Setting CVar [[r.LightMaxDrawDistanceScale:1]]
[2020.02.07-10.29.21:829][  0]LogConfig: Setting CVar [[r.CapsuleShadows:1]]
[2020.02.07-10.29.21:829][  0]LogConfig: Applying CVar settings from Section [PostProcessQuality@3] File [D:/Users/marti/Documents/Unreal Projects/JourneymanMechanics/Saved/Config/Windows/Scalability.ini]
[2020.02.07-10.29.21:829][  0]LogConfig: Setting CVar [[r.MotionBlurQuality:4]]
[2020.02.07-10.29.21:829][  0]LogConfig: Setting CVar [[r.AmbientOcclusionMipLevelFactor:0.4]]
[2020.02.07-10.29.21:829][  0]LogConfig: Setting CVar [[r.AmbientOcclusionMaxQuality:100]]
[2020.02.07-10.29.21:829][  0]LogConfig: Setting CVar [[r.AmbientOcclusionLevels:-1]]
[2020.02.07-10.29.21:829][  0]LogConfig: Setting CVar [[r.AmbientOcclusionRadiusScale:1.0]]
[2020.02.07-10.29.21:829][  0]LogConfig: Setting CVar [[r.DepthOfFieldQuality:2]]
[2020.02.07-10.29.21:829][  0]LogConfig: Setting CVar [[r.RenderTargetPoolMin:400]]
[2020.02.07-10.29.21:829][  0]LogConfig: Setting CVar [[r.LensFlareQuality:2]]
[2020.02.07-10.29.21:829][  0]LogConfig: Setting CVar [[r.SceneColorFringeQuality:1]]
[2020.02.07-10.29.21:829][  0]LogConfig: Setting CVar [[r.EyeAdaptationQuality:2]]
[2020.02.07-10.29.21:829][  0]LogConfig: Setting CVar [[r.BloomQuality:5]]
[2020.02.07-10.29.21:829][  0]LogConfig: Setting CVar [[r.FastBlurThreshold:100]]
[2020.02.07-10.29.21:829][  0]LogConfig: Setting CVar [[r.Upscale.Quality:3]]
[2020.02.07-10.29.21:829][  0]LogConfig: Setting CVar [[r.Tonemapper.GrainQuantization:1]]
[2020.02.07-10.29.21:829][  0]LogConfig: Setting CVar [[r.LightShaftQuality:1]]
[2020.02.07-10.29.21:829][  0]LogConfig: Setting CVar [[r.Filter.SizeScale:1]]
[2020.02.07-10.29.21:829][  0]LogConfig: Setting CVar [[r.Tonemapper.Quality:5]]
[2020.02.07-10.29.21:829][  0]LogConfig: Setting CVar [[r.DOF.Gather.AccumulatorQuality:1        ; higher gathering accumulator quality]]
[2020.02.07-10.29.21:829][  0]LogConfig: Setting CVar [[r.DOF.Gather.PostfilterMethod:1          ; Median3x3 postfilering method]]
[2020.02.07-10.29.21:829][  0]LogConfig: Setting CVar [[r.DOF.Gather.EnableBokehSettings:0       ; no bokeh simulation when gathering]]
[2020.02.07-10.29.21:829][  0]LogConfig: Setting CVar [[r.DOF.Gather.RingCount:4                 ; medium number of samples when gathering]]
[2020.02.07-10.29.21:829][  0]LogConfig: Setting CVar [[r.DOF.Scatter.ForegroundCompositing:1    ; additive foreground scattering]]
[2020.02.07-10.29.21:829][  0]LogConfig: Setting CVar [[r.DOF.Scatter.BackgroundCompositing:2    ; additive background scattering]]
[2020.02.07-10.29.21:830][  0]LogConfig: Setting CVar [[r.DOF.Scatter.EnableBokehSettings:1      ; bokeh simulation when scattering]]
[2020.02.07-10.29.21:830][  0]LogConfig: Setting CVar [[r.DOF.Scatter.MaxSpriteRatio:0.1         ; only a maximum of 10% of scattered bokeh]]
[2020.02.07-10.29.21:830][  0]LogConfig: Setting CVar [[r.DOF.Recombine.Quality:1                ; cheap slight out of focus]]
[2020.02.07-10.29.21:830][  0]LogConfig: Setting CVar [[r.DOF.Recombine.EnableBokehSettings:0    ; no bokeh simulation on slight out of focus]]
[2020.02.07-10.29.21:830][  0]LogConfig: Setting CVar [[r.DOF.TemporalAAQuality:1                ; more stable temporal accumulation]]
[2020.02.07-10.29.21:830][  0]LogConfig: Setting CVar [[r.DOF.Kernel.MaxForegroundRadius:0.025]]
[2020.02.07-10.29.21:830][  0]LogConfig: Setting CVar [[r.DOF.Kernel.MaxBackgroundRadius:0.025]]
[2020.02.07-10.29.21:830][  0]LogConfig: Applying CVar settings from Section [TextureQuality@3] File [D:/Users/marti/Documents/Unreal Projects/JourneymanMechanics/Saved/Config/Windows/Scalability.ini]
[2020.02.07-10.29.21:830][  0]LogConfig: Setting CVar [[r.Streaming.MipBias:0]]
[2020.02.07-10.29.21:830][  0]LogConfig: Setting CVar [[r.Streaming.AmortizeCPUToGPUCopy:0]]
[2020.02.07-10.29.21:830][  0]LogConfig: Setting CVar [[r.Streaming.MaxNumTexturesToStreamPerFrame:0]]
[2020.02.07-10.29.21:830][  0]LogConfig: Setting CVar [[r.Streaming.Boost:1]]
[2020.02.07-10.29.21:830][  0]LogConfig: Setting CVar [[r.MaxAnisotropy:8]]
[2020.02.07-10.29.21:830][  0]LogConfig: Setting CVar [[r.Streaming.LimitPoolSizeToVRAM:0]]
[2020.02.07-10.29.21:830][  0]LogConfig: Setting CVar [[r.Streaming.PoolSize:1000]]
[2020.02.07-10.29.21:830][  0]LogConfig: Setting CVar [[r.Streaming.MaxEffectiveScreenSize:0]]
[2020.02.07-10.29.21:830][  0]LogConfig: Applying CVar settings from Section [EffectsQuality@3] File [D:/Users/marti/Documents/Unreal Projects/JourneymanMechanics/Saved/Config/Windows/Scalability.ini]
[2020.02.07-10.29.21:830][  0]LogConfig: Setting CVar [[r.TranslucencyLightingVolumeDim:64]]
[2020.02.07-10.29.21:830][  0]LogConfig: Setting CVar [[r.RefractionQuality:2]]
[2020.02.07-10.29.21:830][  0]LogConfig: Setting CVar [[r.SSR.Quality:3]]
[2020.02.07-10.29.21:830][  0]LogConfig: Setting CVar [[r.SceneColorFormat:4]]
[2020.02.07-10.29.21:830][  0]LogConfig: Setting CVar [[r.DetailMode:2]]
[2020.02.07-10.29.21:830][  0]LogConfig: Setting CVar [[r.TranslucencyVolumeBlur:1]]
[2020.02.07-10.29.21:830][  0]LogConfig: Setting CVar [[r.MaterialQualityLevel:1 ; High quality]]
[2020.02.07-10.29.21:830][  0]LogConfig: Setting CVar [[r.SSS.Scale:1]]
[2020.02.07-10.29.21:830][  0]LogConfig: Setting CVar [[r.SSS.SampleSet:2]]
[2020.02.07-10.29.21:830][  0]LogConfig: Setting CVar [[r.SSS.Quality:1]]
[2020.02.07-10.29.21:830][  0]LogConfig: Setting CVar [[r.SSS.HalfRes:1]]
[2020.02.07-10.29.21:830][  0]LogConfig: Setting CVar [[r.EmitterSpawnRateScale:1.0]]
[2020.02.07-10.29.21:830][  0]LogConfig: Setting CVar [[r.ParticleLightQuality:2]]
[2020.02.07-10.29.21:830][  0]LogConfig: Applying CVar settings from Section [FoliageQuality@3] File [D:/Users/marti/Documents/Unreal Projects/JourneymanMechanics/Saved/Config/Windows/Scalability.ini]
[2020.02.07-10.29.21:830][  0]LogConfig: Setting CVar [[foliage.DensityScale:1.0]]
[2020.02.07-10.29.21:830][  0]LogConfig: Setting CVar [[grass.DensityScale:1.0]]
[2020.02.07-10.29.21:830][  0]LogConfig: Applying CVar settings from Section [Startup] File [../../../Engine/Config/ConsoleVariables.ini]
[2020.02.07-10.29.21:830][  0]LogConfig: Setting CVar [[net.UseAdaptiveNetUpdateFrequency:0]]
[2020.02.07-10.29.21:830][  0]LogConfig: Applying CVar settings from Section [ConsoleVariables] File [D:/Users/marti/Documents/Unreal Projects/JourneymanMechanics/Saved/Config/Windows/Engine.ini]
[2020.02.07-10.29.21:830][  0]LogInit: Computer: DESKTOP-L8UQ53K
[2020.02.07-10.29.21:830][  0]LogInit: User: marti
[2020.02.07-10.29.21:830][  0]LogInit: CPU Page size=4096, Cores=6
[2020.02.07-10.29.21:830][  0]LogInit: High frequency timer resolution =10.000000 MHz
[2020.02.07-10.29.21:830][  0]LogMemory: Memory total: Physical=7.9GB (8GB approx)
[2020.02.07-10.29.21:830][  0]LogMemory: Platform Memory Stats for Windows
[2020.02.07-10.29.21:830][  0]LogMemory: Process Physical Memory: 108.70 MB used, 108.70 MB peak
[2020.02.07-10.29.21:830][  0]LogMemory: Process Virtual Memory: 97.20 MB used, 97.20 MB peak
[2020.02.07-10.29.21:830][  0]LogMemory: Physical Memory: 5678.37 MB used,  2436.34 MB free, 8114.71 MB total
[2020.02.07-10.29.21:830][  0]LogMemory: Virtual Memory: 4643.15 MB used,  134213088.00 MB free, 134217728.00 MB total
[2020.02.07-10.29.21:846][  0]LogInit: Using OS detected language (en-GB).
[2020.02.07-10.29.21:846][  0]LogInit: Using OS detected locale (en-GB).
[2020.02.07-10.29.21:847][  0]LogTextLocalizationManager: No specific localization for 'en-GB' exists, so the 'en' localization will be used.
[2020.02.07-10.29.22:146][  0]LogStreaming: Display: Took  0.299s to InitEngineTextLocalization.
[2020.02.07-10.29.22:146][  0]LogInit: Setting process to per monitor DPI aware
[2020.02.07-10.29.22:182][  0]LogSlate: New Slate User Created.  User Index 0, Is Virtual User: 0
[2020.02.07-10.29.22:182][  0]LogSlate: Slate User Registered.  User Index 0, Is Virtual User: 0
[2020.02.07-10.29.22:375][  0]LogHMD: Failed to initialize OpenVR with code 126
[2020.02.07-10.29.22:375][  0]LogD3D11RHI: D3D11 adapters:
[2020.02.07-10.29.22:439][  0]LogD3D11RHI:    0. 'NVIDIA GeForce GTX 1650' (Feature Level 11_0)
[2020.02.07-10.29.22:439][  0]LogD3D11RHI:       3962/0/4057 MB DedicatedVideo/DedicatedSystem/SharedSystem, Outputs:2, VendorId:0x10de
[2020.02.07-10.29.22:442][  0]LogD3D11RHI:    1. 'Microsoft Basic Render Driver' (Feature Level 11_0)
[2020.02.07-10.29.22:442][  0]LogD3D11RHI:       0/0/4057 MB DedicatedVideo/DedicatedSystem/SharedSystem, Outputs:0, VendorId:0x1414
[2020.02.07-10.29.22:442][  0]LogD3D11RHI: Chosen D3D11 Adapter: 0
[2020.02.07-10.29.22:448][  0]LogD3D11RHI: Creating new Direct3DDevice
[2020.02.07-10.29.22:448][  0]LogD3D11RHI:     GPU DeviceId: 0x1f82 (for the marketing name, search the web for "GPU Device Id")
[2020.02.07-10.29.22:448][  0]LogWindows: EnumDisplayDevices:
[2020.02.07-10.29.22:448][  0]LogWindows:    0. 'NVIDIA GeForce GTX 1650' (P:0 D:1)
[2020.02.07-10.29.22:448][  0]LogWindows:    1. 'NVIDIA GeForce GTX 1650' (P:1 D:1)
[2020.02.07-10.29.22:449][  0]LogWindows:    2. 'NVIDIA GeForce GTX 1650' (P:0 D:0)
[2020.02.07-10.29.22:449][  0]LogWindows:    3. 'NVIDIA GeForce GTX 1650' (P:0 D:0)
[2020.02.07-10.29.22:449][  0]LogWindows: DebugString: FoundDriverCount:4 
[2020.02.07-10.29.22:449][  0]LogD3D11RHI:     Adapter Name: NVIDIA GeForce GTX 1650
[2020.02.07-10.29.22:449][  0]LogD3D11RHI:   Driver Version: 441.41 (internal:26.21.14.4141, unified:441.41)
[2020.02.07-10.29.22:449][  0]LogD3D11RHI:      Driver Date: 11-20-2019
[2020.02.07-10.29.22:449][  0]LogRHI: Texture pool is 2773 MB (70% of 3962 MB)
[2020.02.07-10.29.22:492][  0]LogD3D11RHI: Async texture creation enabled
[2020.02.07-10.29.22:509][  0]LogD3D11RHI: GPU Timing Frequency: 1000.000000 (Debug: 2 1)
[2020.02.07-10.29.22:809][  0]LogTemp: Display: Loaded TP AllDesktopTargetPlatform
[2020.02.07-10.29.22:820][  0]LogTemp: Display: Loaded TP MacClientTargetPlatform
[2020.02.07-10.29.22:830][  0]LogTemp: Display: Loaded TP MacNoEditorTargetPlatform
[2020.02.07-10.29.22:841][  0]LogTemp: Display: Loaded TP MacServerTargetPlatform
[2020.02.07-10.29.22:851][  0]LogTemp: Display: Loaded TP MacTargetPlatform
[2020.02.07-10.29.22:861][  0]LogTemp: Display: Loaded TP WindowsClientTargetPlatform
[2020.02.07-10.29.22:871][  0]LogTemp: Display: Loaded TP WindowsNoEditorTargetPlatform
[2020.02.07-10.29.22:882][  0]LogTemp: Display: Loaded TP WindowsServerTargetPlatform
[2020.02.07-10.29.22:886][  0]LogTemp: Display: Loaded TP WindowsTargetPlatform
[2020.02.07-10.29.22:944][  0]LogTemp: Display: Loaded TP AndroidTargetPlatform
[2020.02.07-10.29.22:944][  0]LogTemp: Display: Loaded TP AndroidTargetPlatform
[2020.02.07-10.29.22:944][  0]LogTemp: Display: Loaded TP AndroidTargetPlatform
[2020.02.07-10.29.22:944][  0]LogTemp: Display: Loaded TP AndroidTargetPlatform
[2020.02.07-10.29.22:944][  0]LogTemp: Display: Loaded TP AndroidTargetPlatform
[2020.02.07-10.29.22:944][  0]LogTemp: Display: Loaded TP AndroidTargetPlatform
[2020.02.07-10.29.22:944][  0]LogTemp: Display: Loaded TP AndroidTargetPlatform
[2020.02.07-10.29.22:944][  0]LogTemp: Display: Loaded TP AndroidTargetPlatform
[2020.02.07-10.29.22:944][  0]LogTemp: Display: Loaded TP AndroidTargetPlatform
[2020.02.07-10.29.22:944][  0]LogTemp: Display: Loaded TP AndroidTargetPlatform
[2020.02.07-10.29.22:944][  0]LogTemp: Display: Loaded TP AndroidTargetPlatform
[2020.02.07-10.29.22:944][  0]LogTemp: Display: Loaded TP AndroidTargetPlatform
[2020.02.07-10.29.22:944][  0]LogTemp: Display: Loaded TP AndroidTargetPlatform
[2020.02.07-10.29.22:944][  0]LogTemp: Display: Loaded TP AndroidTargetPlatform
[2020.02.07-10.29.22:944][  0]LogTemp: Display: Loaded TP AndroidTargetPlatform
[2020.02.07-10.29.22:944][  0]LogTemp: Display: Loaded TP AndroidTargetPlatform
[2020.02.07-10.29.22:944][  0]LogTemp: Display: Loaded TP AndroidTargetPlatform
[2020.02.07-10.29.22:944][  0]LogTemp: Display: Loaded TP AndroidTargetPlatform
[2020.02.07-10.29.22:945][  0]LogTemp: Display: Loaded TP HTML5TargetPlatform
[2020.02.07-10.29.22:999][  0]LogTemp: Display: Loaded TP IOSTargetPlatform
[2020.02.07-10.29.22:999][  0]LogTemp: Display: Loaded TP IOSTargetPlatform
[2020.02.07-10.29.23:017][  0]LogTemp: Display: Loaded TP TVOSTargetPlatform
[2020.02.07-10.29.23:017][  0]LogTemp: Display: Loaded TP TVOSTargetPlatform
[2020.02.07-10.29.23:027][  0]LogTemp: Display: Loaded TP LinuxClientTargetPlatform
[2020.02.07-10.29.23:037][  0]LogTemp: Display: Loaded TP LinuxNoEditorTargetPlatform
[2020.02.07-10.29.23:046][  0]LogTemp: Display: Loaded TP LinuxServerTargetPlatform
[2020.02.07-10.29.23:056][  0]LogTemp: Display: Loaded TP LinuxTargetPlatform
[2020.02.07-10.29.23:091][  0]LogTemp: Display: Loaded TP LuminTargetPlatform
[2020.02.07-10.29.23:091][  0]LogTemp: Display: Loaded TP LuminTargetPlatform
[2020.02.07-10.29.23:091][  0]LogTargetPlatformManager: Display: Building Assets For Windows
[2020.02.07-10.29.23:132][  0]LogShaderCompilers: Guid format shader working directory is -29 characters bigger than the processId version (../../../../../../Users/marti/Documents/Unreal Projects/JourneymanMechanics/Intermediate/Shaders/WorkingDirectory/5264/).
[2020.02.07-10.29.23:133][  0]LogShaderCompilers: Cleaned the shader compiler working directory 'C:/Users/marti/AppData/Local/Temp/UnrealShaderWorkingDir/128906B0450846F8186DF4B97DB2FD97/'.
[2020.02.07-10.29.23:134][  0]LogXGEController: Cannot use XGE Controller as Incredibuild is not installed on this machine.
[2020.02.07-10.29.23:134][  0]LogShaderCompilers: Cannot use XGE Shader Compiler as Incredibuild is not installed on this machine.
[2020.02.07-10.29.23:134][  0]LogShaderCompilers: Display: Using Local Shader Compiler.
[2020.02.07-10.29.23:593][  0]LogDerivedDataCache: Display: Max Cache Size: 512 MB
[2020.02.07-10.29.23:645][  0]LogDerivedDataCache: Loaded boot cache 0.05s 71MB C:/Users/marti/AppData/Local/UnrealEngine/4.21/DerivedDataCache/Boot.ddc.
[2020.02.07-10.29.23:645][  0]LogDerivedDataCache: Display: Loaded Boot cache: C:/Users/marti/AppData/Local/UnrealEngine/4.21/DerivedDataCache/Boot.ddc
[2020.02.07-10.29.23:645][  0]LogDerivedDataCache: FDerivedDataBackendGraph:  Pak pak cache file ../../../../../../Users/marti/Documents/Unreal Projects/JourneymanMechanics/DerivedDataCache/DDC.ddp not found, will not use a pak cache.
[2020.02.07-10.29.23:645][  0]LogDerivedDataCache: Unable to find inner node Pak for hierarchical cache Hierarchy.
[2020.02.07-10.29.23:645][  0]LogDerivedDataCache: FDerivedDataBackendGraph:  CompressedPak pak cache file ../../../../../../Users/marti/Documents/Unreal Projects/JourneymanMechanics/DerivedDataCache/Compressed.ddp not found, will not use a pak cache.
[2020.02.07-10.29.23:645][  0]LogDerivedDataCache: Unable to find inner node CompressedPak for hierarchical cache Hierarchy.
[2020.02.07-10.29.23:658][  0]LogDerivedDataCache: Display: Pak cache opened for reading ../../../Engine/DerivedDataCache/Compressed.ddp.
[2020.02.07-10.29.23:658][  0]LogDerivedDataCache: FDerivedDataBackendGraph:  EnterprisePak pak cache file ../../../Enterprise/DerivedDataCache/Compressed.ddp not found, will not use a pak cache.
[2020.02.07-10.29.23:658][  0]LogDerivedDataCache: Unable to find inner node EnterprisePak for hierarchical cache Hierarchy.
[2020.02.07-10.29.23:670][  0]LogDerivedDataCache: Using Local data cache path C:/Users/marti/AppData/Local/UnrealEngine/Common/DerivedDataCache: Writable
[2020.02.07-10.29.23:670][  0]LogDerivedDataCache: Shared data cache path not found in *engine.ini, will not use an Shared cache.
[2020.02.07-10.29.23:670][  0]LogDerivedDataCache: Unable to find inner node Shared for hierarchical cache Hierarchy.
[2020.02.07-10.29.23:689][  0]LogMaterial: Verifying Global Shaders for PCD3D_SM5
[2020.02.07-10.29.23:690][  0]LogSlate: Using FreeType 2.6.0
[2020.02.07-10.29.23:691][  0]LogSlate: SlateFontServices - WITH_FREETYPE: 1, WITH_HARFBUZZ: 1
[2020.02.07-10.29.23:771][  0]LogAssetRegistry: FAssetRegistry took 0.0308 seconds to start up
[2020.02.07-10.29.24:018][  0]LogInit: Selected Device Profile: [Windows]
[2020.02.07-10.29.24:204][  0]LogSimplygon: Simplygon DLL not present - disabling.
[2020.02.07-10.29.24:206][  0]LogMeshReduction: Using SimplygonSwarm for distributed automatic mesh merging
[2020.02.07-10.29.24:206][  0]LogMeshReduction: Using ProxyLODMeshReduction for automatic mesh merging
[2020.02.07-10.29.24:206][  0]LogMeshReduction: Using QuadricMeshReduction for automatic static mesh reduction
[2020.02.07-10.29.24:206][  0]LogMeshReduction: No automatic skeletal mesh reduction module available
[2020.02.07-10.29.24:217][  0]LogNetVersion: JourneymanMechanics 1.0.0, NetCL: 4541578, EngineNetVer: 5, GameNetVer: 0 (Checksum: 2131259677)
[2020.02.07-10.29.24:748][  0]LogPackageLocalizationCache: Processed 12 localized package path(s) for 2 prioritized culture(s) in 0.125566 seconds
[2020.02.07-10.29.24:753][  0]LogUObjectArray: 39775 objects as part of root set at end of initial load.
[2020.02.07-10.29.24:753][  0]LogUObjectAllocator: 6914656 out of 0 bytes used by permanent object pool.
[2020.02.07-10.29.24:753][  0]LogUObjectArray: CloseDisregardForGC: 0/0 objects in disregard for GC pool
[2020.02.07-10.29.25:573][  0]LogTcpMessaging: Initializing TcpMessaging bridge
[2020.02.07-10.29.25:586][  0]LogUdpMessaging: Initializing bridge on interface 0.0.0.0:0 to multicast group 230.0.0.1:6666.
[2020.02.07-10.29.26:267][  0]SourceControl: Source control is disabled
[2020.02.07-10.29.26:267][  0]SourceControl: Source control is disabled
[2020.02.07-10.29.26:268][  0]SourceControl: Source control is disabled
[2020.02.07-10.29.26:269][  0]SourceControl: Source control is disabled
[2020.02.07-10.29.26:411][  0]LogAndroidPermission: UAndroidPermissionCallbackProxy::GetInstance
[2020.02.07-10.29.26:516][  0]LogOcInput: OculusInput pre-init called
[2020.02.07-10.29.26:529][  0]LogPython: Python Scripts search path: ../../../../../../Users/marti/Documents/Unreal Projects/JourneymanMechanics/Content/Scripts
[2020.02.07-10.29.26:529][  0]LogPython: Python Scripts search path: ../../../Engine/Plugins/UnrealEnginePython
[2020.02.07-10.29.26:529][  0]LogPython: Python VM initialized: 3.6.2 (v3.6.2:5fd33b5, Jul  8 2017, 04:57:36) [MSC v.1900 64 bit (AMD64)]
[2020.02.07-10.29.26:640][  0]LogPython: ####################----------Python Integration for Megascans Initialized----------####################
[2020.02.07-10.29.26:640][  0]LogPython: 

[2020.02.07-10.29.26:640][  0]LogPython: D:\Program Files\Epic Games\UE_4.21\Engine\Plugins\UnrealEnginePython\
[2020.02.07-10.29.26:640][  0]LogPython: 

[2020.02.07-10.29.26:693][  0]LogPython: Megascans Integration - LiveLink Initialized...
[2020.02.07-10.29.26:693][  0]LogPython: 

[2020.02.07-10.29.26:693][  0]LogPython: ue_site Python module successfully imported
[2020.02.07-10.29.26:819][  0]LogEngine: Initializing Engine...
[2020.02.07-10.29.26:848][  0]LogHMD: Failed to initialize OpenVR with code 126
[2020.02.07-10.29.26:850][  0]LogStats: UGameplayTagsManager::ConstructGameplayTagTree: ImportINI prefixes -  0.000 s
[2020.02.07-10.29.26:850][  0]LogStats: UGameplayTagsManager::ConstructGameplayTagTree: Construct from data asset -  0.000 s
[2020.02.07-10.29.26:850][  0]LogStats: UGameplayTagsManager::ConstructGameplayTagTree: ImportINI -  0.000 s
[2020.02.07-10.29.26:850][  0]LogStats: UGameplayTagsManager::ConstructGameplayTagTree: GameplayTagTreeChangedEvent.Broadcast -  0.000 s
[2020.02.07-10.29.27:049][  0]LogInit: Initializing FReadOnlyCVARCache
[2020.02.07-10.29.27:059][  0]LogAIModule: Creating AISystem for world Untitled
[2020.02.07-10.29.27:104][  0]LogInit: XAudio2 using 'C24F390 (NVIDIA High Definition Audio)' : 2 channels at 48 kHz using 16 bits per sample (channel mask 0x3)
[2020.02.07-10.29.27:222][  0]LogInit: FAudioDevice initialized.
[2020.02.07-10.29.27:222][  0]LogNetVersion: Set ProjectVersion to 1.0.0.0. Version Checksum will be recalculated on next use.
[2020.02.07-10.29.27:275][  0]LogDerivedDataCache: Saved boot cache 0.05s 71MB C:/Users/marti/AppData/Local/UnrealEngine/4.21/DerivedDataCache/Boot.ddc.
[2020.02.07-10.29.27:280][  0]LogInit: Texture streaming: Enabled
[2020.02.07-10.29.27:299][  0]LogEngineSessionManager: EngineSessionManager initialized
[2020.02.07-10.29.27:323][  0]LogInit: Transaction tracking system initialized
[2020.02.07-10.29.27:339][  0]BlueprintLog: New page: Editor Load
[2020.02.07-10.29.27:417][  0]LocalizationService: Localization service is disabled
[2020.02.07-10.29.27:960][  0]LogFileCache: Scanning file cache for directory 'D:/Users/marti/Documents/Unreal Projects/JourneymanMechanics/Content/' took 0.02s
[2020.02.07-10.29.27:960][  0]LogCook: Display: Max memory allowance for cook 16384mb min free memory 0mb
[2020.02.07-10.29.27:960][  0]LogCook: Display: Mobile HDR setting 1
[2020.02.07-10.29.27:965][  0]LogGameplayTags: Display: UGameplayTagsManager::DoneAddingNativeTags. DelegateIsBound: 0
[2020.02.07-10.29.27:966][  0]LogStats: UGameplayTagsManager::ConstructGameplayTagTree: ImportINI prefixes -  0.000 s
[2020.02.07-10.29.27:966][  0]LogStats: UGameplayTagsManager::ConstructGameplayTagTree: Construct from data asset -  0.000 s
[2020.02.07-10.29.27:966][  0]LogStats: UGameplayTagsManager::ConstructGameplayTagTree: ImportINI -  0.000 s
[2020.02.07-10.29.27:966][  0]LogStats: UGameplayTagsManager::ConstructGameplayTagTree: GameplayTagTreeChangedEvent.Broadcast -  0.000 s
[2020.02.07-10.29.28:062][  0]SourceControl: Source control is disabled
[2020.02.07-10.29.28:062][  0]Cmd: MAP LOAD FILE="../../../../../../Users/marti/Documents/Unreal Projects/JourneymanMechanics/Content/SideScrollerBP/Maps/SideScrollerExampleMap.umap" TEMPLATE=0 SHOWPROGRESS=1 FEATURELEVEL=3
[2020.02.07-10.29.28:063][  0]LightingResults: New page: Lighting Build
[2020.02.07-10.29.28:064][  0]MapCheck: New page: Map Check
[2020.02.07-10.29.28:065][  0]LightingResults: New page: Lighting Build
[2020.02.07-10.29.30:846][  0]LogAIModule: Creating AISystem for world SideScrollerExampleMap
[2020.02.07-10.29.30:996][  0]LogEditorServer: Finished looking for orphan Actors (0.000 secs)
[2020.02.07-10.29.31:026][  0]Cmd: MAP CHECKDEP NOCLEARLOG
[2020.02.07-10.29.31:026][  0]MapCheck: Map check complete: 0 Error(s), 0 Warning(s), took 0.087ms to complete.
[2020.02.07-10.29.31:026][  0]LogFileHelpers: Loading map 'SideScrollerExampleMap' took 2.965
[2020.02.07-10.29.31:588][  0]LogSlate: Updating window title bar state: overlay mode, drag disabled, window buttons hidden, title bar hidden
[2020.02.07-10.29.31:598][  0]LogSlate: Updating window title bar state: overlay mode, drag disabled, window buttons hidden, title bar hidden
[2020.02.07-10.29.31:604][  0]LogSlate: Updating window title bar state: overlay mode, drag disabled, window buttons hidden, title bar hidden
[2020.02.07-10.29.31:610][  0]LogSlate: Updating window title bar state: overlay mode, drag disabled, window buttons hidden, title bar hidden
[2020.02.07-10.29.31:645][  0]LogCollectionManager: Loaded 0 collections in 0.001259 seconds
[2020.02.07-10.29.31:746][  0]LogFileCache: Scanning file cache for directory 'D:/Users/marti/Documents/Unreal Projects/JourneymanMechanics/Saved/Collections/' took 0.01s
[2020.02.07-10.29.31:746][  0]LogFileCache: Scanning file cache for directory 'D:/Users/marti/Documents/Unreal Projects/JourneymanMechanics/Content/Developers/marti/Collections/' took 0.00s
[2020.02.07-10.29.31:746][  0]LogFileCache: Scanning file cache for directory 'D:/Users/marti/Documents/Unreal Projects/JourneymanMechanics/Content/Collections/' took 0.00s
[2020.02.07-10.29.31:746][  0]LogCollectionManager: Rebuilt the GUID cache for 0 collections in 0.000000 seconds
[2020.02.07-10.29.31:756][  0]LogContentBrowser: Native class hierarchy populated in 0.0081 seconds. Added 2670 classes and 627 folders.
[2020.02.07-10.29.31:852][  0]LogContentBrowser: Native class hierarchy updated for 'WidgetCarousel' in 0.0002 seconds. Added 0 classes and 0 folders.
[2020.02.07-10.29.31:873][  0]LogPakFile: Registered encryption key '00000000000000000000000000000000': 0 pak files mounted, 0 remain pending
[2020.02.07-10.29.31:903][  0]LogPakFile: Registered encryption key '00000000000000000000000000000000': 0 pak files mounted, 0 remain pending
[2020.02.07-10.29.31:905][  0]LogPakFile: Registered encryption key '00000000000000000000000000000000': 0 pak files mounted, 0 remain pending
[2020.02.07-10.29.31:906][  0]LogPakFile: Registered encryption key '00000000000000000000000000000000': 0 pak files mounted, 0 remain pending
[2020.02.07-10.29.31:907][  0]LogPakFile: Registered encryption key '00000000000000000000000000000000': 0 pak files mounted, 0 remain pending
[2020.02.07-10.29.31:908][  0]LogPakFile: Registered encryption key '00000000000000000000000000000000': 0 pak files mounted, 0 remain pending
[2020.02.07-10.29.31:909][  0]LogPakFile: Registered encryption key '00000000000000000000000000000000': 0 pak files mounted, 0 remain pending
[2020.02.07-10.29.31:911][  0]LogPakFile: Registered encryption key '00000000000000000000000000000000': 0 pak files mounted, 0 remain pending
[2020.02.07-10.29.31:912][  0]LogPakFile: Registered encryption key '00000000000000000000000000000000': 0 pak files mounted, 0 remain pending
[2020.02.07-10.29.31:913][  0]LogPakFile: Registered encryption key '00000000000000000000000000000000': 0 pak files mounted, 0 remain pending
[2020.02.07-10.29.31:914][  0]LogPakFile: Registered encryption key '00000000000000000000000000000000': 0 pak files mounted, 0 remain pending
[2020.02.07-10.29.31:915][  0]LogPakFile: Registered encryption key '00000000000000000000000000000000': 0 pak files mounted, 0 remain pending
[2020.02.07-10.29.31:917][  0]LogPakFile: Registered encryption key '00000000000000000000000000000000': 0 pak files mounted, 0 remain pending
[2020.02.07-10.29.31:918][  0]LogPakFile: Registered encryption key '00000000000000000000000000000000': 0 pak files mounted, 0 remain pending
[2020.02.07-10.29.31:919][  0]LogPakFile: Registered encryption key '00000000000000000000000000000000': 0 pak files mounted, 0 remain pending
[2020.02.07-10.29.31:920][  0]LogPakFile: Registered encryption key '00000000000000000000000000000000': 0 pak files mounted, 0 remain pending
[2020.02.07-10.29.31:921][  0]LogPakFile: Registered encryption key '00000000000000000000000000000000': 0 pak files mounted, 0 remain pending
[2020.02.07-10.29.31:922][  0]LogPakFile: Registered encryption key '00000000000000000000000000000000': 0 pak files mounted, 0 remain pending
[2020.02.07-10.29.31:923][  0]LogPakFile: Registered encryption key '00000000000000000000000000000000': 0 pak files mounted, 0 remain pending
[2020.02.07-10.29.31:924][  0]LogPakFile: Registered encryption key '00000000000000000000000000000000': 0 pak files mounted, 0 remain pending
[2020.02.07-10.29.31:925][  0]LogPakFile: Registered encryption key '00000000000000000000000000000000': 0 pak files mounted, 0 remain pending
[2020.02.07-10.29.31:926][  0]LogPakFile: Registered encryption key '00000000000000000000000000000000': 0 pak files mounted, 0 remain pending
[2020.02.07-10.29.31:927][  0]LogPakFile: Registered encryption key '00000000000000000000000000000000': 0 pak files mounted, 0 remain pending
[2020.02.07-10.29.31:928][  0]LogPakFile: Registered encryption key '00000000000000000000000000000000': 0 pak files mounted, 0 remain pending
[2020.02.07-10.29.31:929][  0]LogPakFile: Registered encryption key '00000000000000000000000000000000': 0 pak files mounted, 0 remain pending
[2020.02.07-10.29.31:930][  0]LogPakFile: Registered encryption key '00000000000000000000000000000000': 0 pak files mounted, 0 remain pending
[2020.02.07-10.29.32:217][  0]LogContentBrowser: Native class hierarchy updated for 'AddContentDialog' in 0.0002 seconds. Added 0 classes and 0 folders.
[2020.02.07-10.29.32:261][  0]LogContentBrowser: Native class hierarchy updated for 'SceneOutliner' in 0.0003 seconds. Added 1 classes and 2 folders.
[2020.02.07-10.29.32:999][  0]LogContentBrowser: Native class hierarchy updated for 'WorldBrowser' in 0.0003 seconds. Added 2 classes and 3 folders.
[2020.02.07-10.29.33:062][  0]LogSlate: Took 0.000178 seconds to synchronously load lazily loaded font '../../../Engine/Content/Slate/Fonts/Roboto-Regular.ttf' (155K)
[2020.02.07-10.29.33:064][  0]LogSlate: Took 0.000155 seconds to synchronously load lazily loaded font '../../../Engine/Content/Slate/Fonts/Roboto-Bold.ttf' (160K)
[2020.02.07-10.29.33:105][  0]LogSlate: Took 0.005768 seconds to synchronously load lazily loaded font '../../../Engine/Content/Editor/Slate/Fonts/FontAwesome.ttf' (139K)
[2020.02.07-10.29.33:369][  0]LogRenderer: Reallocating scene render targets to support 1164x672 Format 10 NumSamples 1 (Frame:1).
[2020.02.07-10.29.33:784][  0]LogContentBrowser: Native class hierarchy updated for 'HierarchicalLODOutliner' in 0.0002 seconds. Added 0 classes and 0 folders.
[2020.02.07-10.29.33:784][  0]LogLoad: (Engine Initialization) Total time: 15.74 seconds
[2020.02.07-10.29.33:786][  0]LogLoad: (Engine Initialization) Total Blueprint compile time: 0.00 seconds
[2020.02.07-10.29.33:892][  0]LogContentStreaming: Texture pool size now 1000 MB
[2020.02.07-10.29.33:920][  0]LogSlate: Took 0.008317 seconds to synchronously load lazily loaded font '../../../Engine/Content/Slate/Fonts/Roboto-Light.ttf' (167K)
[2020.02.07-10.29.34:044][  2]LogAssetRegistry: Asset discovery search completed in 10.2951 seconds
[2020.02.07-10.29.34:045][  2]LogCollectionManager: Rebuilt the object cache for 0 collections in 0.000000 seconds (found 0 objects)
[2020.02.07-10.29.34:045][  2]LogCollectionManager: Fixed up redirectors for 0 collections in 0.000044 seconds (updated 0 objects)
[2020.02.07-10.29.34:255][  4]LogPython: tcp server spawned on 127.0.0.1:13428
[2020.02.07-10.29.34:825][ 69]LogSlate: Took 0.000194 seconds to synchronously load lazily loaded font '../../../Engine/Content/Slate/Fonts/Roboto-Light.ttf' (167K)
[2020.02.07-10.30.01:871][209]LogSlate: FSceneViewport::OnFocusLost() reason 0
[2020.02.07-10.30.02:243][254]LogTemp: Repeating last play command: Selected Viewport
[2020.02.07-10.30.02:299][254]LogBlueprintUserMessages: Early PlayInEditor Detection: Level '/Game/SideScrollerBP/Maps/SideScrollerExampleMap.SideScrollerExampleMap:PersistentLevel' has LevelScriptBlueprint '/Game/SideScrollerBP/Maps/SideScrollerExampleMap.SideScrollerExampleMap:PersistentLevel.SideScrollerExampleMap' with GeneratedClass '/Game/SideScrollerBP/Maps/SideScrollerExampleMap.SideScrollerExampleMap_C' with ClassGeneratedBy '/Game/SideScrollerBP/Maps/SideScrollerExampleMap.SideScrollerExampleMap:PersistentLevel.SideScrollerExampleMap'
[2020.02.07-10.30.02:316][254]LogPlayLevel: PlayLevel: No blueprints needed recompiling
[2020.02.07-10.30.02:357][254]PIE: New page: PIE session: SideScrollerExampleMap (7 Feb 2020 10:30:02)
[2020.02.07-10.30.02:417][254]LogPlayLevel: Creating play world package: /Game/SideScrollerBP/Maps/UEDPIE_0_SideScrollerExampleMap
[2020.02.07-10.30.02:475][254]LogPlayLevel: PIE: StaticDuplicateObject took: (0.056934s)
[2020.02.07-10.30.02:476][254]LogAIModule: Creating AISystem for world SideScrollerExampleMap
[2020.02.07-10.30.02:489][254]LogPlayLevel: PIE: World Init took: (0.014207s)
[2020.02.07-10.30.02:489][254]LogPlayLevel: PIE: Created PIE world by copying editor world from /Game/SideScrollerBP/Maps/SideScrollerExampleMap.SideScrollerExampleMap to /Game/SideScrollerBP/Maps/UEDPIE_0_SideScrollerExampleMap.SideScrollerExampleMap (0.071443s)
[2020.02.07-10.30.02:577][254]LogInit: XAudio2 using 'C24F390 (NVIDIA High Definition Audio)' : 2 channels at 48 kHz using 16 bits per sample (channel mask 0x3)
[2020.02.07-10.30.02:590][254]LogInit: FAudioDevice initialized.
[2020.02.07-10.30.02:693][254]LogLoad: Game class is 'SideScrollerGameMode_C'
[2020.02.07-10.30.02:753][254]LogOutputDevice: Warning: 

Script Stack (0 frames):

[2020.02.07-10.30.03:234][254]LogStats: FPlatformStackWalk::StackWalkAndDump -  0.480 s
[2020.02.07-10.30.03:243][254]LogOutputDevice: Error: === Handled ensure: ===
[2020.02.07-10.30.03:243][254]LogOutputDevice: Error: 
[2020.02.07-10.30.03:243][254]LogOutputDevice: Error: Ensure condition failed: Cast<APawn>(NewUpdatedComponent->GetOwner()) [File:D:\Build\++UE4\Sync\Engine\Source\Runtime\Engine\Private\Components\PawnMovementComponent.cpp] [Line: 18]
[2020.02.07-10.30.03:243][254]LogOutputDevice: Error: FloatingPawnMovement must update a component owned by a Pawn
[2020.02.07-10.30.03:243][254]LogOutputDevice: Error: Stack: 
[2020.02.07-10.30.03:243][254]LogOutputDevice: Error: [Callstack] 0x00007ffd465c1725 UE4Editor-Engine.dll!UnknownFunction []
[2020.02.07-10.30.03:243][254]LogOutputDevice: Error: [Callstack] 0x00007ffd465ada0b UE4Editor-Engine.dll!UnknownFunction []
[2020.02.07-10.30.03:243][254]LogOutputDevice: Error: [Callstack] 0x00007ffd4651ddf3 UE4Editor-Engine.dll!UnknownFunction []
[2020.02.07-10.30.03:243][254]LogOutputDevice: Error: [Callstack] 0x00007ffd4654861a UE4Editor-Engine.dll!UnknownFunction []
[2020.02.07-10.30.03:243][254]LogOutputDevice: Error: [Callstack] 0x00007ffd460f53e1 UE4Editor-Engine.dll!UnknownFunction []
[2020.02.07-10.30.03:243][254]LogOutputDevice: Error: [Callstack] 0x00007ffd46a115a2 UE4Editor-Engine.dll!UnknownFunction []
[2020.02.07-10.30.03:243][254]LogOutputDevice: Error: [Callstack] 0x00007ffd47510053 UE4Editor-Engine.dll!UnknownFunction []
[2020.02.07-10.30.03:243][254]LogOutputDevice: Error: [Callstack] 0x00007ffd474e7534 UE4Editor-Engine.dll!UnknownFunction []
[2020.02.07-10.30.03:243][254]LogOutputDevice: Error: [Callstack] 0x00007ffd4687c067 UE4Editor-Engine.dll!UnknownFunction []
[2020.02.07-10.30.03:243][254]LogOutputDevice: Error: [Callstack] 0x00007ffd3997ac89 UE4Editor-UnrealEd.dll!UnknownFunction []
[2020.02.07-10.30.03:243][254]LogOutputDevice: Error: [Callstack] 0x00007ffd3999b350 UE4Editor-UnrealEd.dll!UnknownFunction []
[2020.02.07-10.30.03:243][254]LogOutputDevice: Error: [Callstack] 0x00007ffd399b92e6 UE4Editor-UnrealEd.dll!UnknownFunction []
[2020.02.07-10.30.03:243][254]LogOutputDevice: Error: [Callstack] 0x00007ffd393b1891 UE4Editor-UnrealEd.dll!UnknownFunction []
[2020.02.07-10.30.03:243][254]LogOutputDevice: Error: [Callstack] 0x00007ffd39cd2346 UE4Editor-UnrealEd.dll!UnknownFunction []
[2020.02.07-10.30.03:243][254]LogOutputDevice: Error: [Callstack] 0x00007ff6a6d56225 UE4Editor.exe!UnknownFunction []
[2020.02.07-10.30.03:243][254]LogOutputDevice: Error: [Callstack] 0x00007ff6a6d6596c UE4Editor.exe!UnknownFunction []
[2020.02.07-10.30.03:243][254]LogOutputDevice: Error: [Callstack] 0x00007ff6a6d659ea UE4Editor.exe!UnknownFunction []
[2020.02.07-10.30.03:243][254]LogOutputDevice: Error: [Callstack] 0x00007ff6a6d748da UE4Editor.exe!UnknownFunction []
[2020.02.07-10.30.03:243][254]LogOutputDevice: Error: [Callstack] 0x00007ff6a6d7659a UE4Editor.exe!UnknownFunction []
[2020.02.07-10.30.03:243][254]LogOutputDevice: Error: [Callstack] 0x00007ffdad3e7bd4 KERNEL32.DLL!UnknownFunction []
[2020.02.07-10.30.03:243][254]LogOutputDevice: Error: [Callstack] 0x00007ffdae40ced1 ntdll.dll!UnknownFunction []
[2020.02.07-10.30.03:243][254]LogOutputDevice: Error: 
[2020.02.07-10.30.03:253][254]LogStats:                SubmitErrorReport -  0.000 s
